Part No,Description,Recurring,Unit Price (BHD)
IC-1,Internal Cabling (per meter),0,0
EC-1,External Cabling (per meter),0,1
DM-1,ODU Mounting,0,20
DM-2,Rack Mounting,0,20
R-42U-1,Rack (42U),0,700
R-12U-1,Rack (12U),0,250
R-9U-1,Rack (9U),0,90
R-6U-1,Rack (6U),0,70
CPP-48P-1,Copper Patch Panel (48-Port),0,250
CPP-24P-1,Copper Patch Panel (24-Port),0,150
CPP-12P-1,Copper Patch Panel (12-Port),0,100
FPP-144-1,Fiber Patch Panel (144-Port),0,250
FPP-96-1,Fiber Patch Panel (96-Port),0,150
FPP-48-1,Fiber Patch Panel (48-Port),0,100
FPP-24-1,Fiber Patch Panel (24-Port),0,50
FPP-12-1,Fiber Patch Panel (12-Port),0,25
FPP-8-1,Fiber Patch Panel (8-Port),0,10
FT-1,Fiber Termination (tools & Accessories),0,0
FT-2,Fiber Termination (Charges),0,200
CT-1,Copper Termination (tools & Accessories),0,0
CT-2,Copper Termination (Charges),0,10
SAF-26G-1,SAF Microwave (26Ghz),0,2000
SAF-13G-1,SAF Microwave (13Ghz),0,2000
SAF-36G-1,SAF Microwave (38Ghz),0,2000
NEC-26-1,NEC Microwave (26Ghz),0,2000
AF-5G-1,AirFiber (5Ghz),0,2000
C3560Xabcd,Cisco Switch (Catalyst 3560),0,500
CISCO1921/K9,Cisco Router (ISR 1921),0,400
ONU114abcd,Alloptic ONU (1154),0,400
EFMabcd,Keymile EFM Modem,,350
BTC-BTS-256K-1,Residential Bitstream 256Kbps,1,0
BTC-BTS-256K-2,Business Bitstream 256Kbps,1,0
BTC-WLA-256K-1,WLA 256Kbps,1,0
BTC-WLA-512K-1,WLA 512Kbps,1,0
Duct-1,Duct Rental (Feasibility Study),0,0
Duct-2,Duct Rental (Implementation),0,0
Duct-3,Duct Rental (Supervision),0,100
Duct-4,Duct Rental (MRC),1,0.186
